fid,x,y,dhm_terrae
"1",708633.351984476,6210096.7484629,24.3115463256836
"2",708658.742675298,6210023.63758613,24.1761016845703
"3",708584.311024897,6210066.51831905,25.7831115722656
"4",708587.453658693,6209999.54621359,25.8349494934082
"5",708577.034196589,6209956.01674435,28.081958770752
"6",708680.936151629,6209955.64237051,23.6330146789551
